{ 
	"bdkuaibo2": {
		"umId": "648d1a6c87568a379b58492f",
		"appId": "1",
		"appName": "快播APP",
		"splashId": "1",
		"gdTAppId": "1",
		"1": "1",
		"videoId": "1",
		"popId": "1",
		"popId1": "1",
		"bannerId": "1"
	},
	"bdddys4": {
		"umId": "648d1a6c87568a379b58492f",
		"appId": "1",
		"appName": "低端影视APP",
		"splashId": "1",
		"gdTAppId": "1",
		"1": "1",
		"videoId": "1",
		"popId": "1",
		"popId1": "1",
		"bannerId": "1"
	},
	"bdkuaibo": {
		"umId": "648d1a6c87568a379b58492f",
		"appId": "1",
		"appName": "快播APP",
		"splashId": "1",
		"gdTAppId": "1",
		"1": "1",
		"videoId": "1",
		"popId": "1",
		"popId1": "1",
		"bannerId": "1"
	},
	"bdddys3": {
		"umId": "648d1a6c87568a379b58492f",
		"appId": "1",
		"appName": "低端影视APP",
		"splashId": "1",
		"gdTAppId": "1",
		"1": "1",
		"videoId": "1",
		"popId": "1",
		"popId1": "1",
		"bannerId": "1"
	},
	"bdkuaibys": {
		"umId": "648d1a6c87568a379b58492f",
		"appId": "1",
		"appName": "快播影视APP",
		"splashId": "1",
		"gdTAppId": "1",
		"1": "1",
		"videoId": "1",
		"popId": "1",
		"popId1": "1",
		"bannerId": "1"
	},
	"bdddys2": {
		"umId": "648d1a6c87568a379b58492f",
		"appId": "1",
		"appName": "低端影视APP",
		"splashId": "1",
		"gdTAppId": "1",
		"1": "1",
		"videoId": "1",
		"popId": "1",
		"popId1": "1",
		"bannerId": "1"
	},
	"bdkbys2": {
		"umId": "648d1a6c87568a379b58492f",
		"appId": "1",
		"appName": "看吧影视APP",
		"splashId": "1",
		"gdTAppId": "1",
		"1": "1",
		"videoId": "1",
		"popId": "1",
		"popId1": "1",
		"bannerId": "1"
	},
	"bdkbys": {
		"umId": "648d1a6c87568a379b58492f",
		"appId": "1",
		"appName": "看吧影视APP",
		"splashId": "1",
		"gdTAppId": "1",
		"1": "1",
		"videoId": "1",
		"popId": "1",
		"popId1": "1",
		"bannerId": "1"
	},
	"bdddys": {
		"umId": "648d1a6c87568a379b58492f",
		"appId": "1",
		"appName": "低端影视APP",
		"splashId": "1",
		"gdTAppId": "1",
		"1": "1",
		"videoId": "1",
		"popId": "1",
		"popId1": "1",
		"bannerId": "1"
	},
	"bdadys3": {
		"umId": "648d1a6c87568a379b58492f",
		"appId": "1",
		"appName": "爱电影视APP",
		"splashId": "1",
		"gdTAppId": "1",
		"1": "1",
		"videoId": "1",
		"popId": "1",
		"popId1": "1",
		"bannerId": "1"
	},
	 "bdadys2": {
		"umId": "648d1a6c87568a379b58492f",
		"appId": "1",
		"appName": "爱电影视APP",
		"splashId": "1",
		"gdTAppId": "1",
		"1": "1",
		"videoId": "1",
		"popId": "1",
		"popId1": "1",
		"bannerId": "1"
	},
	 "bdqqysdq4": {
		"umId": "648d1a6c87568a379b58492f",
		"appId": "1",
		"appName": "七七影视大全APP",
		"splashId": "1",
		"gdTAppId": "1",
		"1": "1",
		"videoId": "1",
		"popId": "1",
		"popId1": "1",
		"bannerId": "1"
	},
	 "bdysgc3": {
		"umId": "648d1a6c87568a379b58492f",
		"appId": "1",
		"appName": "影视工场APP",
		"splashId": "1",
		"gdTAppId": "1",
		"1": "1",
		"videoId": "1",
		"popId": "1",
		"popId1": "1",
		"bannerId": "1"
	},
	 "bdadys": {
		"umId": "648d1a6c87568a379b58492f",
		"appId": "1",
		"appName": "爱电影视APP",
		"splashId": "1",
		"gdTAppId": "1",
		"1": "1",
		"videoId": "1",
		"popId": "1",
		"popId1": "1",
		"bannerId": "1"
	},
	 "bdzdsp": {
		"umId": "648d1a6c87568a379b58492f",
		"appId": "1",
		"appName": "整点视频APP",
		"splashId": "1",
		"gdTAppId": "1",
		"1": "1",
		"videoId": "1",
		"popId": "1",
		"popId1": "1",
		"bannerId": "1"
	},
	"tv": {
		"umId": "648d1a6c87568a379b58492f",
		"appId": "1",
		"appName": "电视家APP",
		"splashId": "1",
		"gdTAppId": "1",
		"1": "1",
		"videoId": "1",
		"popId": "1",
		"popId1": "1",
		"bannerId": "1"
	},
	 "bdnnys": {
		"umId": "648d1a6c87568a379b58492f",
		"appId": "1",
		"appName": "牛牛影视APP",
		"splashId": "1",
		"gdTAppId": "1",
		"1": "1",
		"videoId": "1",
		"popId": "1",
		"popId1": "1",
		"bannerId": "1"
	},
		 "bdqqysdq3": {
		"umId": "648d1a6c87568a379b58492f",
		"appId": "5405269",
		"appName": "七七影视大全APP",
		"splashId": "102375192",
		"gdTAppId": "1",
		"1": "1",
		"videoId": "102375096",
		"popId": "102376021",
		"popId1": "1",
		"bannerId": "1"
	},
	 "bdllsp2": {
		"umId": "644b8624ba6a5259c44686c0",
		"appId": "1",
		"appName": "玲珑视频APP",
		"splashId": "1",
		"gdTAppId": "1",
		"1": "1",
		"videoId": "1",
		"popId": "1",
		"popId1": "1",
		"bannerId": "1"
	},
	 "bdjkk2": {
		"umId": "644b8624ba6a5259c44686c0",
		"appId": "1",
		"appName": "鲸看看影视APP",
		"splashId": "1",
		"gdTAppId": "1",
		"1": "1",
		"videoId": "1",
		"popId": "1",
		"popId1": "1",
		"bannerId": "1"
	},
	 "bdjkkys": {
		"umId": "644b8624ba6a5259c44686c0",
		"appId": "1",
		"appName": "鲸看看影视APP",
		"splashId": "1",
		"gdTAppId": "1",
		"1": "1",
		"videoId": "1",
		"popId": "1",
		"popId1": "1",
		"bannerId": "1"
	},
       "bdqqysdq2": {
		"umId": "644b8624ba6a5259c44686c0",
		"appId": "5401088",
		"appName": "七七影视大全APP",
		"splashId": "102356545",
		"gdTAppId": "1",
		"1": "1",
		"videoId": "102356546",
		"popId": "102357305",
		"popId1": "1",
		"bannerId": "1"
	},
      "bdfnsp2": {
		"umId": "644b8624ba6a5259c44686c0",
		"appId": "1",
		"appName": "蜂鸟视频APP",
		"splashId": "1",
		"gdTAppId": "1",
		"1": "1",
		"videoId": "1",
		"popId": "1",
		"popId1": "1",
		"bannerId": "1"
	},
    "bdkgys": {
		"umId": "644b8624ba6a5259c44686c0",
		"appId": "1",
		"appName": "快狗影视APP",
		"splashId": "1",
		"gdTAppId": "1",
		"1": "1",
		"videoId": "1",
		"popId": "1",
		"popId1": "1",
		"bannerId": "1"
	},
     "bdpk3": {
		"umId": "644b8624ba6a5259c44686c0",
		"appId": "1",
		"appName": "片库网APP",
		"splashId": "1",
		"gdTAppId": "1",
		"1": "1",
		"videoId": "1",
		"popId": "1",
		"popId1": "1",
		"bannerId": "1"
	},
       "bdhmsp": {
		"umId": "644b8624ba6a5259c44686c0",
		"appId": "1",
		"appName": "河马视频APP",
		"splashId": "1",
		"gdTAppId": "1",
		"1": "1",
		"videoId": "1",
		"popId": "1",
		"popId1": "1",
		"bannerId": "1"
	},
	"bddbxq2": {
		"umId": "644b8624ba6a5259c44686c0",
		"appId": "1",
		"appName": "蛋播星球APP",
		"splashId": "1",
		"gdTAppId": "1",
		"1": "1",
		"videoId": "1",
		"popId": "1",
		"popId1": "1",
		"bannerId": "1"
	},
	"bdjzsp2": {
		"umId": "644b8624ba6a5259c44686c0",
		"appId": "1",
		"appName": "橘子视频APP",
		"splashId": "1",
		"gdTAppId": "1",
		"1": "1",
		"videoId": "1",
		"popId": "1",
		"popId1": "1",
		"bannerId": "1"
	},
	"bdfnzj": {
		"umId": "644b8624ba6a5259c44686c0",
		"appId": "1",
		"appName": "蜂鸟追剧APP",
		"splashId": "1",
		"gdTAppId": "1",
		"1": "1",
		"videoId": "1",
		"popId": "1",
		"popId1": "1",
		"bannerId": "1"
	},
	"bdcbh": {
		"umId": "644b8624ba6a5259c44686c0",
		"appId": "1",
		"appName": "茶杯狐APP",
		"splashId": "1",
		"gdTAppId": "1",
		"1": "1",
		"videoId": "1",
		"popId": "1",
		"popId1": "1",
		"bannerId": "1"
	},
	
	"bdsbb": {
		"umId": "644b8624ba6a5259c44686c0",
		"appId": "1",
		"appName": "素白白APP",
		"splashId": "1",
		"gdTAppId": "1",
		"1": "1",
		"videoId": "1",
		"popId": "1",
		"popId1": "1",
		"bannerId": "1"
	},
	"bdvivoxk": {
		"umId": "644b8624ba6a5259c44686c0",
		"appId": "1",
		"appName": "星空视频APP",
		"splashId": "1",
		"gdTAppId": "1",
		"1": "1",
		"videoId": "1",
		"popId": "1",
		"popId1": "1",
		"bannerId": "1"
	},
	"bdalhy": {
		"umId": "644b8624ba6a5259c44686c0",
		"appId": "1",
		"appName": "火焰视频APP",
		"splashId": "1",
		"gdTAppId": "1",
		"1": "1",
		"videoId": "1",
		"popId": "1",
		"popId1": "1",
		"bannerId": "1"
	},
		
        "bdlibvio": {
		"umId": "644b8624ba6a5259c44686c0",
		"appId": "1",
		"appName": "LIBVIOAPP",
		"splashId": "1",
		"gdTAppId": "1",
		"1": "1",
		"videoId": "1",
		"popId": "1",
		"popId1": "1",
		"bannerId": "1"
	},
        "bddsxys": {
		"umId": "644b8624ba6a5259c44686c0",
		"appId": "1",
		"appName": "大师兄影视APP",
		"splashId": "1",
		"gdTAppId": "1",
		"1": "1",
		"videoId": "1",
		"popId": "1",
		"popId1": "1",
		"bannerId": "1"
	},
	"bdttys": {
		"umId": "644b8624ba6a5259c44686c0",
		"appId": "1",
		"appName": "图图影视APP",
		"splashId": "1",
		"gdTAppId": "1",
		"1": "1",
		"videoId": "1",
		"popId": "1",
		"popId1": "1",
		"bannerId": "1"
	},
	"bddbxq": {
		"umId": "644b8624ba6a5259c44686c0",
		"appId": "1",
		"appName": "蛋播星球APP",
		"splashId": "1",
		"gdTAppId": "1",
		"1": "1",
		"videoId": "1",
		"popId": "1",
		"popId1": "1",
		"bannerId": "1"
	},
	
	"bdtgys": {
		"umId": "644b8624ba6a5259c44686c0",
		"appId": "5392105",
		"appName": "特狗影视APP",
		"splashId": "102338223",
		"gdTAppId": "1",
		"1": "1",
		"videoId": "102338413",
		"popId": "102337656",
		"popId1": "1",
		"bannerId": "1"
	},
	"bdsbbys": {
		"umId": "644b8624ba6a5259c44686c0",
		"appId": "1",
		"appName": "素白白影视APP",
		"splashId": "1",
		"gdTAppId": "1",
		"1": "1",
		"videoId": "1",
		"popId": "1",
		"popId1": "1",
		"bannerId": "1"
	},
	"bdshsp": {
		"umId": "6434c85ad64e686139618c1b",
		"appId": "1",
		"appName": "山海视频APP",
		"splashId": "1",
		"gdTAppId": "1",
		"1": "1",
		"videoId": "1",
		"popId": "1",
		"popId1": "1",
		"bannerId": "1"
	},
	"bdxmxk": {
		"umId": "6434c85ad64e686139618c1b",
		"appId": "1",
		"appName": "星空视频APP",
		"splashId": "1",
		"gdTAppId": "1",
		"1": "1",
		"videoId": "1",
		"popId": "1",
		"popId1": "1",
		"bannerId": "1"
	},
	"bdqqysdq": {
		"umId": "6434c85ad64e686139618c1b",
		"appId": "5392087",
		"appName": "七七影视大全APP",
		"splashId": "102339026",
		"gdTAppId": "1",
		"1": "1",
		"videoId": "102337747",
		"popId": "102338216",
		"popId1": "1",
		"bannerId": "1"
	},
	"bdftys": {
		"umId": "6434c85ad64e686139618c1b",
		"appId": "1",
		"appName": "饭团影视APP",
		"splashId": "1",
		"gdTAppId": "1",
		"1": "1",
		"videoId": "1",
		"popId": "1",
		"popId1": "1",
		"bannerId": "1"
	},
	"bddgys": {
		"umId": "6434c85ad64e686139618c1b",
		"appId": "1",
		"appName": "冬瓜影视APP",
		"splashId": "1",
		"gdTAppId": "1",
		"1": "1",
		"videoId": "1",
		"popId": "1",
		"popId1": "1",
		"bannerId": "1"
	},
	"bdllsp": {
		"umId": "6434c85ad64e686139618c1b",
		"appId": "5392101",
		"appName": "玲珑影视APP",
		"splashId": "102338224",
		"gdTAppId": "1",
		"1": "1",
		"videoId": "102337469",
		"popId": "102337377",
		"popId1": "1",
		"bannerId": "1"
	},
	"bdvvysgc": {
		"umId": "6434c85ad64e686139618c1b",
		"appId": "1",
		"appName": "影视工厂APP",
		"splashId": "1",
		"gdTAppId": "1",
		"1": "1",
		"videoId": "1",
		"popId": "1",
		"popId1": "1",
		"bannerId": "1"
	},
	"bdllys": {
		"umId": "6434c85ad64e686139618c1b",
		"appId": "1",
		"appName": "玲珑影视APP",
		"splashId": "1",
		"gdTAppId": "1",
		"1": "1",
		"videoId": "1",
		"popId": "1",
		"popId1": "1",
		"bannerId": "1"
	},

	"bdsyys": {
		"umId": "6434c85ad64e686139618c1b",
		"appId": "5401092",
		"appName": "鲨鱼影视APP",
		"splashId": "102356353",
		"gdTAppId": "1",
		"1": "1",
		"videoId": "102356355",
		"popId": "102356354",
		"popId1": "1",
		"bannerId": "1"
	},
	"seohxsp": {
		"umId": "6434c85ad64e686139618c1b",
		"appId": "1",
		"appName": "恒星视频APP",
		"splashId": "1",
		"gdTAppId": "1",
		"1": "1",
		"videoId": "1",
		"popId": "1",
		"popId1": "1",
		"bannerId": "1"
	},
	"bdbyyy": {
		"umId": "641c39afba6a5259c425583c",
		"appId": "1",
		"appName": "八一影院APP",
		"splashId": "1",
		"gdTAppId": "1",
		"1": "1",
		"videoId": "1",
		"popId": "1",
		"popId1": "1",
		"bannerId": "1"
	},
	"bdwnsp": {
		"umId": "641c39afba6a5259c425583c",
		"appId": "1",
		"appName": "蜗牛视频APP",
		"splashId": "1",
		"gdTAppId": "1",
		"1": "1",
		"videoId": "1",
		"popId": "1",
		"popId1": "1",
		"bannerId": "1"
	},
	"bdxpg2": {
		"umId": "641c39afba6a5259c425583c",
		"appId": "1",
		"appName": "小苹果影视APP",
		"splashId": "1",
		"gdTAppId": "1",
		"1": "1",
		"videoId": "1",
		"popId": "1",
		"popId1": "1",
		"bannerId": "1"
	},
	"bdjkk": {
		"umId": "641c39afba6a5259c425583c",
		"appId": "1",
		"appName": "鲸看看APP",
		"splashId": "1",
		"gdTAppId": "1",
		"1": "1",
		"videoId": "1",
		"popId": "1",
		"popId1": "1",
		"bannerId": "1"
	},
	
	"bdjzsp": {
		"umId": "641c39afba6a5259c425583c",
		"appId": "1",
		"appName": "橘子视频APP",
		"splashId": "1",
		"gdTAppId": "1",
		"1": "1",
		"videoId": "1",
		"popId": "1",
		"popId1": "1",
		"bannerId": "1"
	},	
	"bdkgysdq": {
		"umId": "641c39afba6a5259c425583c",
		"appId": "5392062",
		"appName": "快狗影视大全APP",
		"splashId": "102338720",
		"gdTAppId": "1",
		"1": "1",
		"videoId": "102337641",
		"popId": "102338916",
		"popId1": "1",
		"bannerId": "1"
	},	
	
	"seoysgc": {
		"umId": "641c39afba6a5259c425583c",
		"appId": "1",
		"appName": "影视工厂APP",
		"splashId": "1",
		"gdTAppId": "1",
		"1": "1",
		"videoId": "1",
		"popId": "1",
		"popId1": "1",
		"bannerId": "1"
	},	
	"bdlmsp": {
		"umId": "641c39afba6a5259c425583c",
		"appId": "5392096",
		"appName": "蓝猫视频APP",
		"splashId": "102338737",
		"gdTAppId": "1",
		"1": "1",
		"videoId": "102338369",
		"popId": "102338370",
		"popId1": "1",
		"bannerId": "1"
	},	
	
	"bdxcsp": {
		"umId": "641c39afba6a5259c425583c",
		"appId": "5392091",
		"appName": "星辰视频APP",
		"splashId": "102339119",
		"gdTAppId": "1",
		"1": "1",
		"videoId": "102336993",
		"popId": "102338736",
		"popId1": "1",
		"bannerId": "1"
	},	
	
	"bdlk2": {
		"umId": "641c39afba6a5259c425583c",
		"appId": "1",
		"appName": "乐看视频APP",
		"splashId":  "1",
		"gdTAppId": "1",
		"1": "1",
		"videoId": "1",
		"popId": "1",
		"popId1": "1",
		"bannerId": "1"
	},
	
	
	
	"bdxcys": {
		"umId": "641c39afba6a5259c425583c",
		"appId": "1",
		"appName": "星辰视频APP",
		"splashId": "1",
		"gdTAppId": "1",
		"1": "1",
		"videoId": "1",
		"popId": "1",
		"popId1": "1",
		"bannerId": "1"
	},
        
	"bdcbh2": {
		"umId": "641c39afba6a5259c425583c",
		"appId": "5392220",
		"appName": "茶杯狐APP",
		"splashId": "102338625",
		"gdTAppId": "1",
		"1": "1",
		"videoId": "102337693",
		"popId": "102339317",
		"popId1": "1",
		"bannerId": "1"
	},

	"bdtksp": {
		"umId": "641c39afba6a5259c425583c",
		"appId": "5406051",
		"appName": "天空影视APP",
		"splashId": "102377735",
		"gdTAppId": "1",
		"1": "1",
		"videoId": "102377925",
		"popId": "102377829",
		"popId1": "1",
		"bannerId": "1"
	},
       "bdtkys": {
		"umId": "641c39afba6a5259c425583c",
		"appId": "5392094",
		"appName": "天空影视APP",
		"splashId": "102336790",
		"gdTAppId": "1",
		"1": "1",
		"videoId": "102336999",
		"popId": "102336791",
		"popId1": "1",
		"bannerId": "1"
	},
	
	"bdvvxk": {
		"umId": "641075f1d64e6861394aa4a9",
		"appId": "1",
		"appName": "星空视频APP",
		"splashId": "1",
		"gdTAppId": "1",
		"1": "1",
		"videoId": "1",
		"popId": "1",
		"popId1": "1",
		"bannerId": "1"
	},
        
	"bdxpg": {
		"umId": "641075f1d64e6861394aa4a9",
		"appId": "5385783",
		"appName": "小苹果影视APP",
		"splashId": "102312888",
		"gdTAppId": "1",
		"1": "1",
		"videoId": "102314332",
		"popId": "102313566",
		"popId1": "1",
		"bannerId": "1"
	},
	
	"bdyssl": {
		"umId": "641075f1d64e6861394aa4a9",
		"appId": "5392092",
		"appName": "影视森林APP",
		"splashId": "102338368",
		"gdTAppId": "1",
		"1": "1",
		"videoId": "102338367",
		"popId": "102337463",
		"popId1": "1",
		"bannerId": "1"
	},
        "nesshotbdcbh": {
		"umId": "641075f1d64e6861394aa4a9",
		"appId": "1",
		"appName": "茶杯狐APP",
		"splashId": "1",
		"gdTAppId": "1",
		"1": "1",
		"videoId": "1",
		"popId": "1",
		"popId1": "1",
		"bannerId": "1"
	},
	"bdhm2": {
		"umId": "641075f1d64e6861394aa4a9",
		"appId": "1",
		"appName": "河马影视APP",
		"splashId": "1",
		"gdTAppId": "1",
		"1": "1",
		"videoId": "1",
		"popId": "1",
		"popId1": "1",
		"bannerId": "1"
	},
	"bdjp": {
		"umId": "641075f1d64e6861394aa4a9",
		"appId": "5379108",
		"appName": "荐片APP",
		"splashId": "102294040",
		"gdTAppId": "1",
		"1": "1",
		"videoId": "102293077",
		"popId": "102293273",
		"popId1": "1",
		"bannerId": "1"
	},

	"bdpk2": {
		"umId": "641075f1d64e6861394aa4a9",
		"appId": "1",
		"appName": "片库APP",
		"splashId": "1",
		"gdTAppId": "1",
		"1": "1",
		"videoId": "1",
		"popId": "1",
		"popId1": "1",
		"bannerId": "1"
	},

	"bdtt2": {
		"umId": "641075f1d64e6861394aa4a9",
		"appId": "1",
		"appName": "天天影视APP",
		"splashId": "1",
		"gdTAppId": "1",
		"1": "1",
		"videoId": "1",
		"popId": "1",
		"popId1": "1",
		"bannerId": "1"
	},

	"bdfnsp": {
		"umId": "641075f1d64e6861394aa4a9",
		"appId": "1",
		"appName": "蜂鸟视频APP",
		"splashId": "1",
		"gdTAppId": "1",
		"1": "1",
		"videoId": "1",
		"popId": "1",
		"popId1": "1",
		"bannerId": "1"
	},

	"bdtjm": {
		"umId": "641075f1d64e6861394aa4a9",
		"appId": "1",
		"appName": "泰剧迷APP",
		"splashId": "1",
		"gdTAppId": "1",
		"1": "1",
		"videoId": "1",
		"popId": "1",
		"popId1": "1",
		"bannerId": "1"
	},


	"bdysgc2": {
		"umId": "641075f1d64e6861394aa4a9",
		"appId": "5392079",
		"appName": "影视工场APP",
		"splashId": "102339111",
		"gdTAppId": "1",
		"1": "1",
		"videoId": "102338401",
		"popId": "102336400",
		"popId1": "1",
		"bannerId": "1"
	},

	"bdwp2": {
		"umId": "635e94f588ccdf4b7e57cda1",
		"appId": "1",
		"appName": "王牌视频APP",
		"splashId": "1",
		"gdTAppId": "1",
		"1": "1",
		"videoId": "1",
		"popId": "1",
		"popId1": "1",
		"bannerId": "1"
	},









	"bdpk": {
		"umId": "635e94f588ccdf4b7e57cda1",
		"appId": "5372884",
		"appName": "片库网视频APP",
		"splashId": "102286198",
		"gdTAppId": "1",
		"1": "1",
		"videoId": "102288422",
		"popId": "102286578",
		"popId1": "1",
		"bannerId": "1"
	},

	"bdxm": {
		"umId": "635e94f588ccdf4b7e57cda1",
		"appId": "5372883",
		"appName": "新米视频APP",
		"splashId": "102287867",
		"gdTAppId": "1",
		"1": "1",
		"videoId": "102287633",
		"popId": "102286197",
		"popId1": "1",
		"bannerId": "1"
	},

	"bdtt": {
		"umId": "635e94f588ccdf4b7e57cda1",
		"appId": "5372882",
		"appName": "天天视频APP",
		"splashId": "102287632",
		"gdTAppId": "1",
		"1": "1",
		"videoId": "102288331",
		"popId": "102287866",
		"popId1": "1",
		"bannerId": "1"
	},

	"bdfx": {
		"umId": "635e94f588ccdf4b7e57cda1",
		"appId": "5372881",
		"appName": "风信影视APP",
		"splashId": "102287788",
		"gdTAppId": "1",
		"1": "1",
		"videoId": "102288328",
		"popId": "102287631",
		"popId1": "1",
		"bannerId": "1"
	},

	"bdlk": {
		"umId": "635e94f588ccdf4b7e57cda1",
		"appId": "5372469",
		"appName": "乐看视频APP",
		"splashId": "102286378",
		"gdTAppId": "1",
		"1": "1",
		"videoId": "102284958",
		"popId": "102286285",
		"popId1": "1",
		"bannerId": "1"
	},

	"bdwp": {
		"umId": "635e94f588ccdf4b7e57cda1",
		"appId": "5372467",
		"appName": "王牌影视APP",
		"splashId": "102286822",
		"gdTAppId": "1",
		"videoId": "102284384",
		"popId": "102285722",
		"popId1": "1",
		"bannerId": "1"
	},

	"bdysgc": {
		"umId": "635e94f588ccdf4b7e57cda1",
		"appId": "5372464",
		"appName": "影视工厂APP",
		"splashId": "102286284",
		"gdTAppId": "1",
		"1": "1",
		"videoId": "102286503",
		"popId": "102284383",
		"popId1": "1",
		"bannerId": "1"
	},

	"bddh": {
		"umId": "635e94f588ccdf4b7e57cda1",
		"appId": "5372460",
		"appName": "大海视频APP",
		"splashId": "102284670",
		"gdTAppId": "1",
		"1": "1",
		"videoId": "102286114",
		"popId": "102285999",
		"popId1": "1",
		"bannerId": "1"
	},

	"bddsm": {
		"umId": "635e94f588ccdf4b7e57cda1",
		"appId": "5372459",
		"appName": "电视猫视频APP",
		"splashId": "102285998",
		"gdTAppId": "1",
		"1": "1",
		"videoId": "102286283",
		"popId": "102284764",
		"popId1": "1",
		"bannerId": "1"
	},

	"bdxc": {
		"umId": "635e94f588ccdf4b7e57cda1",
		"appId": "5372457",
		"appName": "星辰视频APP",
		"splashId": "102286377",
		"gdTAppId": "1",
		"videoId": "102286821",
		"popId": "102284957",
		"popId1": "1",
		"bannerId": "1"
	},

	"bdhm": {
		"umId": "635e94f588ccdf4b7e57cda1",
		"appId": "5372454",
		"appName": "河马视频APP",
		"splashId": "102286820",
		"gdTAppId": "1",
		"videoId": "102286376",
		"popId": "102284097",
		"popId1": "1",
		"bannerId": "1"
	},

	"bdzd": {
		"umId": "635e94f588ccdf4b7e57cda1",
		"appId": "5371168",
		"appName": "紫电视频APP",
		"splashId": "102280972",
		"gdTAppId": "1",
		"1": "1",
		"videoId": "102282944",
		"popId": "102281656",
		"popId1": "1",
		"bannerId": "1"
	},

	"bdhy": {
		"umId": "635e94f588ccdf4b7e57cda1",
		"appId": "5369922",
		"appName": "火焰视频APP",
		"splashId": "1102276668",
		"gdTAppId": "1",
		"videoId": "102277154",
		"popId": "102278232",
		"popId1": "1",
		"bannerId": "1"
	},

	"bdhx": {
		"umId": "635e94f588ccdf4b7e57cda1",
		"appId": "5366898",
		"appName": "恒星视频APP",
		"splashId": "102266808",
		"gdTAppId": "1",
		"1": "1",
		"videoId": "102263879",
		"popId": "102267733",
		"popId1": "1",
		"bannerId": "1"
	},

	"bdxk": {
		"umId": "635e94f588ccdf4b7e57cda1",
		"appId": "5365080",
		"appName": "星空视频APP",
		"splashId": "102261518",
		"gdTAppId": "1",
		"gdTSplashId": "1",
		"videoId": "102263258",
		"popId": "102261518",
		"popId1": "1",
		"bannerId": "1"
	},

	"bdvipfnzjsgg": {
		"umId": "635e94f588ccdf4b7e57cda1",
		"appId": "5364536",
		"appName": "蜂鸟追剧APP",
		"splashId": "102261359",
		"gdTAppId": "1",
		"gdTSplashId": "1",
		"videoId": "102261292",
		"popId": "102261486",
		"popId1": "1",
		"bannerId": "1"
	},

	"bdlx": {
		"umId": "635e94f588ccdf4b7e57cda1",
		"appId": "5364906",
		"appName": "流星视频APP",
		"splashId": "102262480",
		"gdTAppId": "1",
		"gdTSplashId": "1",
		"videoId": "102260136",
		"popId": "102257874",
		"popId1": "1",
		"bannerId": "1"
	}




}
